@startuml ska_oso_pdm._shared
!pragma useIntermediatePackages false

class ska_oso_pdm._shared.python_arguments.FunctionArgs {
  function_name: Optional[str] {static}
  function_args: Optional[PythonArguments] {static}
}
class ska_oso_pdm._shared.metadata.Metadata {
  version: int {static}
  created_by: Optional[str] {static}
  created_on: pydantic.types.AwareDatetime {static}
  last_modified_by: Optional[str] {static}
  last_modified_on: pydantic.types.AwareDatetime {static}
  pdm_version: Optional[str] {static}
}
class ska_oso_pdm._shared.pdm_object.PdmObject {
}
class ska_oso_pdm._shared.python_arguments.PythonArguments {
  args: list {static}
  kwargs: dict {static}
}
class ska_oso_pdm._shared.target.RadialVelocity {
  quantity: Quantity {static}
  definition: RadialVelocityDefinition {static}
  reference_frame: RadialVelocityReferenceFrame {static}
  redshift: float {static}
}
class ska_oso_pdm._shared.target.TiedArrayBeams {
  pst_beams: List[Beam] {static}
  pss_beams: List[Beam] {static}
  vlbi_beams: List[Beam] {static}
}
enum ska_oso_pdm._shared.target.RadialVelocityDefinition {
  OPTICAL: OPTICAL {static}
  RADIO: RADIO {static}
  RELATIVISTIC: RELATIVISTIC {static}
}
enum ska_oso_pdm._shared.target.RadialVelocityReferenceFrame {
  TOPOCENTRIC: TOPOCENTRIC {static}
  LSRK: LSRK {static}
  BARYCENTRIC: BARYCENTRIC {static}
}
enum ska_oso_pdm._shared.target.RadialVelocityUnits {
  M_PER_SEC: m / s {static}
  KM_PER_SEC: km / s {static}
}
class ska_oso_pdm._shared.target.Target {
  target_id: str {static}
  pointing_pattern: PointingPattern {static}
  reference_coordinate: Union[EquatorialCoordinates, ] {static}
  radial_velocity: RadialVelocity {static}
  tied_array_beams: Optional[TiedArrayBeams] {static}
}
enum ska_oso_pdm._shared.atoms.TelescopeType {
  SKA_MID: ska_mid {static}
  SKA_LOW: ska_low {static}
  MEERKAT: MeerKAT {static}
}

enum ska_oso_pdm._shared.atoms.SubArrayLOW{
    AA05_ALL: AA0.5 {static}
    AA1_ALL: AA1 {static}
    AA2_ALL: AA2 {static}
    {field} AA2_CORE_ONLY: AA2 (core only)  {static}
    AASTAR_ALL: AA* {static}
    {field} AASTAR_CORE_ONLY: AA* (core only) {static}
    AA4_ALL: AA4 {static}
    {field} AA4_CORE_ONLY: AA4 (core only) {static}
    CUSTOM:Custom {static}
}

enum ska_oso_pdm._shared.atoms.SubArrayMID{
    AA05_ALL = AA0.5 {static}
    AA1_ALL = AA1 {static}
    AA2_ALL = AA2 {static}
    AASTAR_ALL = AA* {static}
    {field} AASTAR_SKA_ONLY = AA* (15m antennas only) {static}
    AA4_ALL = AA4 {static}
    {field} AA4_MEERKAT_ONLY = AA*/AA4 (13.5m antennas only) {static}
    {field} AA4_SKA_ONLY = AA4 (15m antennas only) {static}
}

enum ska_oso_pdm._shared.atoms.TerseStrEnum {
}
ska_oso_pdm._shared.python_arguments.FunctionArgs *-- ska_oso_pdm._shared.python_arguments.PythonArguments
ska_oso_pdm._shared.pdm_object.PdmObject <|-- ska_oso_pdm._shared.python_arguments.FunctionArgs
ska_oso_pdm._shared.pdm_object.PdmObject <|-- ska_oso_pdm._shared.metadata.Metadata
ska_oso_pdm._shared.pdm_object.PdmObject <|-- ska_oso_pdm._shared.python_arguments.PythonArguments
ska_oso_pdm._shared.target.RadialVelocity *-- ska_oso_pdm._shared.target.RadialVelocityDefinition
ska_oso_pdm._shared.target.RadialVelocity *-- ska_oso_pdm._shared.target.RadialVelocityReferenceFrame
ska_oso_pdm._shared.pdm_object.PdmObject <|-- ska_oso_pdm._shared.target.RadialVelocity
ska_oso_pdm._shared.target.Target *-- ska_oso_pdm._shared.target.PointingPattern
ska_oso_pdm._shared.target.Target *-- ska_oso_pdm._shared.target.EquatorialCoordinates
ska_oso_pdm._shared.target.Target *-- ska_oso_pdm._shared.target.RadialVelocity
ska_oso_pdm._shared.target.Target *-- ska_oso_pdm._shared.target.TiedArrayBeams
ska_oso_pdm._shared.pdm_object.PdmObject <|-- ska_oso_pdm._shared.target.Target
ska_oso_pdm._shared.pdm_object.PdmObject <|-- ska_oso_pdm._shared.target.TiedArrayBeams
@enduml

