@startuml ska_oso_pdm.sb_instance
!pragma useIntermediatePackages false

class ska_oso_pdm.sb_instance.ActivityCall {
  activity_ref: Optional[str] {static}
  executed_at: pydantic.types.AwareDatetime {static}
  runtime_args: list[FunctionArgs] {static}
}
class ska_oso_pdm.sb_instance.SBInstance {
  interface: Optional[str] {static}
  sbi_id: Optional[str] {static}
  metadata: Optional[Metadata] {static}
  telescope: TelescopeType {static}
  sbd_ref: Optional[str] {static}
  sbd_version: Optional[int] {static}
  eb_ref: Optional[str] {static}
  subarray_id: Optional[int] {static}
  activities: list[ActivityCall] {static}
}
ska_oso_pdm.sb_instance.SBInstance *-- ska_oso_pdm.sb_instance.ActivityCall

@enduml

