{
  "interface": "https://schema.skao.int/ska-oso-pdm-eb/0.1",
  "eb_id": "eb-mvp01-20220923-00001",
  "telescope": "ska_mid",
  "sbd_ref": "sbd-mvp01-20220923-00001",
  "sbd_version": 1,
  "sbi_ref": "sbi-mvp01-20220923-00001",
  "metadata": {
    "version": 1,
    "created_by": "TestUser",
    "created_on": "2022-09-23T15:43:53.971548Z",
    "last_modified_on": "2022-09-23T15:43:53.971548Z",
    "last_modified_by": "TestUser",
    "pdm_version": "15.3.0"
  },
  "request_responses": [
    {
      "request": "ska_oso_scripting.functions.devicecontrol.release_all_resources",
      "request_args": {"kwargs": {"subarray_id": "1"}},
      "status": "OK",
      "response": {
        "result": "this is a result"
      },
      "request_sent_at": "2022-09-23T15:43:53.971548Z",
      "response_received_at": "2022-09-23T15:43:53.971548Z"
    },
    {
      "request": "ska_oso_scripting.functions.devicecontrol.scan",
      "status": "ERROR",
      "error": {
        "detail": "this is an error"
      },
      "request_sent_at": "2022-09-23T15:43:53.971548Z",
      "response_received_at": "2022-09-23T15:43:53.971548Z"
    }
  ]
}
