@startuml
hide empty members

package ska_oso_pdm {
	package entities {
        package "<<//name of SB category//>>" as entity.py <<Rectangle>> {
            class Entity
            note top of Entity
                Object model for
                logical group or
                entity in the SB
                data model
            end note
        }
	}

    note as N1
        One Python module per
        category (CSP, DISH, etc.),
        or alternatively a Python
        package if the data model
        for the category is complex.
    end note

	note as N2
		Classes in the
		""ska_oso_pdm.entities""
		package are Pydantic models
        that inherit from PdmEntity
	end note
}

@enduml
