{
  "prsl_id": "prp-ska01-202204-02",
  "status": "draft",
  "investigator_refs": [
    "TestUser"
  ],
  "metadata": {
    "version": 1,
    "created_by": "TestUser",
    "created_on": "2022-09-23T15:43:53.971548Z",
    "last_modified_by": "TestUser",
    "last_modified_on": "2022-09-23T15:43:53.971548Z",
    "pdm_version": "15.3.0"
  },
  "cycle": "SKA_5000_2023",
  "info": {
    "title": "The Milky Way View",
    "proposal_type": {
      "main_type": "standard_proposal",
      "attributes": ["coordinated_proposal"]
    },
    "abstract": "",
    "science_category": "",
    "investigators": [
      {
        "investigator_id": "TestUser",
        "given_name": "Tony",
        "family_name": "Bennet",
        "email": "somewhere.vague@example.com",
        "organization": "",
        "for_phd" : false,
        "status": "pending",
        "principal_investigator": true
      }
    ]
  }
}
